{
    "exp": 1615797719,
    "iat": 1615797419,
    "jti": "daf2710d-9a00-482b-bb92-bbed2d6d95a4",
    "iss": "https://localhost:8180/auth/realms/myrealm",
    "sub": "038cfd7d-07c9-4fc7-a5e0-8794e02a410a",
    "typ": "Bearer",
    "azp": "logql",
    "session_state": "1fd41683-948f-4a8d-a7fb-07a5f0502ab8",
    "acr": "1",
    "resource_access": {
      "logql": {
        "roles": ["logs-read", "metrics-write"]
      }
    },
    "scope": "openid web-origins email profile",
    "email_verified": true,
    "name": "My Test User",
    "preferred_username": "myuser@example.com",
    "given_name": "My Test",
    "family_name": "User",
    "email": "myuser@example.com"
  }
